<svg width="64" height="52" viewBox="0 0 64 52" fill="none" xmlns="http://www.w3.org/2000/svg">
<path fill-rule="evenodd" clip-rule="evenodd" d="M56.0001 41.9999H53.9991C52.8938 41.9999 52.0003 41.1034 52.0003 40.0019C52.0003 38.8964 52.8938 37.9999 53.9991 37.9999H56.0001C58.207 37.9999 60 36.2109 60 33.9999V28.0018C60 27.8416 59.9688 27.6815 59.9229 27.5271C59.9073 27.4685 59.8789 27.4119 59.8555 27.3514C59.8271 27.283 59.8018 27.2127 59.7656 27.1462C59.3096 26.221 58.1924 25.3304 56.798 25.0745C55.0139 24.4105 52.6283 24.0002 49.9985 24.0002C47.4438 24.0002 45.1227 24.4134 43.356 25.0599C42.4625 25.1908 41.6764 25.5901 41.0867 26.0921L41.0769 26.0794C40.7517 26.3675 40.3269 26.5486 39.8582 26.5486C38.8405 26.5486 38.0144 25.721 38.0144 24.7044C38.0144 23.9827 38.4314 23.3645 39.032 23.0627C40.116 22.2726 41.4324 21.592 42.9625 21.0851C41.324 19.4543 40.24 17.2649 40.0408 14.8175C40.0134 14.547 39.9998 14.2745 39.9998 13.9991V8C39.9998 3.582 43.5807 -6.86645e-08 48.0005 -6.86645e-08H52.0004C56.4173 -6.86645e-08 60.0001 3.58213 60.0001 8V13.9991C60.0001 15.1036 59.1036 16.0001 57.9993 16.0001C56.8938 16.0001 56.0003 15.1036 56.0003 13.9991V8C56.0003 5.79 54.2073 4 52.0004 4H48.0005C45.7907 4 43.9997 5.79 43.9997 8V13.9991C43.9997 17.3136 46.687 20.0001 49.9985 20.0001C57.3889 20.0001 63.4258 23.2716 63.9483 27.4216C63.9795 27.6091 64 27.8025 64 28.0018V33.9999C63.9999 38.4198 60.417 41.9999 56.0001 41.9999ZM34.9744 24.8069C34.9519 24.8762 34.9256 24.9485 34.8924 25.0159C34.8896 25.0179 34.8896 25.0236 34.8876 25.0256H34.8847C34.5604 25.6926 33.8858 26.1565 33.0948 26.1565C31.9893 26.1565 31.0938 25.26 31.0938 24.1555C31.0938 23.8694 31.1553 23.5959 31.2637 23.3517L31.2578 23.3489C31.7294 22.3293 32.0001 21.1984 32.0001 20.0001C32.0001 19.5549 31.9532 19.1192 31.8838 18.6915C31.9591 18.3311 32.0001 17.9551 32.0001 17.5714V9.42963C32.0001 6.43163 29.6124 3.99988 26.6663 3.99988H21.3345C18.3873 3.99988 15.9997 6.4315 15.9997 9.42963V17.5714C15.9997 17.9551 16.0417 18.3311 16.116 18.6915C16.0466 19.1192 15.9997 19.5547 15.9997 20.0001C15.9997 24.4181 19.5826 28.0016 24.0005 28.0016C36.7521 28.0016 47.1559 32.5621 47.9254 38.3162C47.9694 38.5389 48.0007 38.7674 48.0007 38.9999V44.0019C48.0007 48.42 44.4178 52 39.9999 52H7.99998C3.58287 52 0 48.4199 0 44.0019V38.9999C0 38.7675 0.0225 38.5487 0.0566249 38.3319C0.316374 36.3162 1.7665 34.4589 4.06137 32.8905C4.38662 32.615 4.80062 32.4393 5.25949 32.4393C6.28199 32.4393 7.11099 33.2655 7.11099 34.289C7.11099 34.9432 6.77124 35.5116 6.25849 35.8417L6.27124 35.8612C4.82699 36.826 3.99987 37.8964 3.99987 38.9999V44.0019C3.99987 46.209 5.79274 48 7.99973 48H39.9997C42.2095 48 43.9995 46.209 43.9995 44.0019V38.9999C43.9995 35.1326 35.0447 32.0018 24.0002 32.0018C20.7885 32.0018 17.8773 30.7302 15.7241 28.6756C15.1547 28.1326 14.6323 27.5291 14.1792 26.8826C13.7358 26.2523 13.3521 25.5745 13.0357 24.8636C13.0221 24.8382 13.0124 24.8148 12.9996 24.7894C12.8677 24.4876 12.7516 24.1731 12.6441 23.8587C12.6206 23.7875 12.5894 23.7201 12.567 23.6477C12.4761 23.3675 12.4069 23.0765 12.3375 22.7855C12.3111 22.6771 12.2779 22.5716 12.2545 22.4602C12.1851 22.1282 12.1392 21.7884 12.0954 21.4485C12.0876 21.384 12.0719 21.3215 12.067 21.2571C12.023 20.845 11.9996 20.4251 11.9996 20.0002C11.9996 19.7786 12.0201 19.5656 12.0337 19.346C12.0181 19.1195 11.9996 18.8957 11.9996 18.6662V9.33412C11.9996 4.17787 16.0307 0.000124863 20.9993 0.000124863H27.0001C31.9716 0.000124863 35.9998 4.17787 35.9998 9.33412V18.6662C35.9998 18.8957 35.9822 19.1194 35.9666 19.346C35.9793 19.5657 35.9998 19.7786 35.9998 20.0002C35.9998 21.7131 35.6238 23.3332 34.9744 24.8069ZM13.0016 30.9997C13.0016 32.1032 12.1051 32.9999 11.0006 32.9999C9.89523 32.9999 9.00173 32.1032 9.00173 30.9997C9.00173 29.8962 9.89523 28.9997 11.0006 28.9997C12.1051 28.9997 13.0016 29.8962 13.0016 30.9997Z" fill="#E2110B"/>
</svg>
