<svg width="30" height="18" viewBox="0 0 30 18" fill="none" xmlns="http://www.w3.org/2000/svg">
<path d="M27.8404 8.71101C27.7579 7.88532 27.1805 7.22477 26.3968 7.01835L25.0357 6.64679L24.1283 3.50917C24.0046 2.60092 23.2209 1.89908 22.3136 1.81651L17.9828 1.52752V0.701835C17.9828 0.330275 17.6941 -3.14975e-07 17.2817 -3.14975e-07H5.32061C4.90816 -3.14975e-07 4.61944 0.288991 4.61944 0.701835C4.61944 1.11468 4.90816 1.40367 5.32061 1.40367H16.5805V2.18807V12.2615H0.701165C0.32996 12.2615 -3.14674e-07 12.5505 -3.14674e-07 12.9633C-3.14674e-07 13.3349 0.288715 13.6651 0.701165 13.6651H2.72217C2.35097 14.2431 2.18599 14.9037 2.30972 15.6468C2.43346 16.3899 2.84591 17.0092 3.42334 17.4633C3.91828 17.7936 4.45446 18 5.03189 18C5.19687 18 5.32061 18 5.48559 17.9587C6.5992 17.7936 7.4241 16.9679 7.71282 15.9358H19.7564C20.0863 17.133 21.1999 18 22.4373 18C22.6023 18 22.726 18 22.891 17.9587C24.417 17.711 25.4069 16.2661 25.1595 14.7798C25.077 14.4083 24.9532 14.0367 24.747 13.7064H26.6443C27.3042 13.7064 27.8404 13.5 28.0879 13.1697C28.2528 12.9633 28.2941 12.7156 28.2528 12.4679L27.8404 8.71101ZM22.6848 16.5138C21.9011 16.6376 21.1999 16.1422 21.0762 15.3578C20.9525 14.5734 21.4474 13.8716 22.2311 13.7477C22.3136 13.7477 22.396 13.7477 22.4785 13.7477C23.1385 13.7477 23.7571 14.2431 23.8809 14.9037C23.9634 15.6881 23.4272 16.3899 22.6848 16.5138ZM19.7151 14.4908H7.75406C7.67157 14.1606 7.54784 13.8716 7.38286 13.6239H17.2817H20.1276C19.9213 13.9128 19.7976 14.2018 19.7151 14.4908ZM6.18675 15.9771C5.98053 16.2661 5.65057 16.4725 5.27936 16.555C4.90816 16.5963 4.53695 16.5138 4.24824 16.3073C3.95952 16.1009 3.7533 15.7706 3.67081 15.3991C3.62956 15.0275 3.71205 14.656 3.91828 14.367C4.1245 14.078 4.45446 13.8716 4.82567 13.789C4.90816 13.789 4.99065 13.789 5.07314 13.789C5.36185 13.789 5.65057 13.8716 5.89804 14.0367C6.18675 14.2431 6.39298 14.5734 6.47547 14.945C6.51671 15.2752 6.43422 15.6468 6.18675 15.9771ZM26.6443 12.2615H17.9828V2.88991L22.1898 3.1789C22.4785 3.1789 22.726 3.42661 22.7672 3.7156C22.7672 3.75688 22.7672 3.79816 22.8085 3.83945L23.8396 7.38991C23.9221 7.63762 24.0871 7.80275 24.3346 7.84404L26.0668 8.33945C26.3143 8.42202 26.4793 8.62844 26.5205 8.87615L26.8917 12.2615C26.8093 12.2615 26.7268 12.2615 26.6443 12.2615Z" transform="translate(1.73242)" fill="#1C1C1C"/>
<path d="M-3.14674e-07 0.701836C-3.14674e-07 1.0734 0.288715 1.40367 0.701165 1.40367H7.96029C8.33149 1.40367 8.66145 1.11468 8.66145 0.701836C8.66145 0.288991 8.37274 3.14975e-07 7.96029 3.14975e-07H0.701165C0.288715 3.14975e-07 -3.14674e-07 0.288991 -3.14674e-07 0.701836Z" transform="translate(3.17578 4.08716)" fill="#1C1C1C"/>
<path d="M10.3113 0.701835C10.3113 0.330276 10.0225 0 9.61009 0H0.701165C0.32996 0 1.57337e-07 0.288991 1.57337e-07 0.701835C1.57337e-07 1.11468 0.288715 1.40367 0.701165 1.40367H9.61009C9.98129 1.40367 10.3113 1.11468 10.3113 0.701835Z" transform="translate(0 8.13306)" fill="#1C1C1C"/>
</svg>
