<svg width="27" height="27" viewBox="0 0 27 27" fill="none" xmlns="http://www.w3.org/2000/svg">
<path fill-rule="evenodd" clip-rule="evenodd" d="M22.9237 17.1706C21.3465 16.5964 19.0158 15.3323 17.4861 16.6668L15.9166 17.9889C14.5225 17.0836 13.2157 16.0164 12.0367 14.8486L11.9148 14.7233C10.7958 13.6051 9.78974 12.3546 8.92389 11.0325L10.2206 9.49871C11.6076 7.97321 10.3264 5.63943 9.74457 4.05716C8.71649 1.26041 8.43302 -0.127915 5.0659 0.00926213C4.08238 -0.0309449 3.1066 0.439122 2.43686 1.14156C-3.35726 7.20455 2.40774 15.023 7.02401 19.6557C8.46808 21.0925 10.223 19.3784 8.76641 17.9304C5.90679 15.0609 2.3911 10.877 2.48856 6.58193C2.51411 5.40883 3.37402 2.82967 4.78897 2.47963L4.92922 2.45184L5.13959 2.45539C5.5734 2.42996 6.06724 2.41636 6.48382 2.52811C6.74708 2.87579 8.44194 7.56345 8.41638 7.79878L7.01332 9.49161C6.58485 9.99539 6.362 10.6499 6.44579 11.3092C6.51413 11.8567 6.76016 12.2068 6.76016 12.2068C7.71634 13.7228 8.89596 15.1756 10.1635 16.4403L10.4119 16.6887C11.4668 17.7341 12.5442 18.592 13.3565 19.1898C14.1855 19.8018 14.7495 20.1494 14.7495 20.1494C15.5957 20.6887 16.7201 20.5083 17.4606 19.8863L19.0853 18.5234C19.6481 18.4631 23.8822 20.0619 24.5092 20.5326C24.5823 21.2498 24.5323 21.75 24.5323 21.75L24.5359 21.9599L24.5068 22.0983C24.4717 22.2402 24.3862 22.4519 24.1586 22.6665C18.1683 28.3345 13.2014 18.4188 8.61012 22.9888C7.4507 24.1423 9.18834 25.8724 10.3478 24.7188C11.0734 23.9981 12.0064 23.8757 13.6257 24.8897C15.7336 26.2083 17.8866 26.8912 20.4402 26.8333C22.91 26.7789 27.115 24.8412 26.9908 21.8233C27.1275 18.4755 25.734 18.1929 22.9237 17.1706ZM6.19263 23.9726C5.35234 23.9726 4.67071 24.6497 4.67071 25.4869C4.67071 26.323 5.35174 27 6.19263 27C7.03352 27 7.71455 26.323 7.71455 25.4869C7.71396 24.6497 7.03293 23.9726 6.19263 23.9726Z" fill="#E2110B"/>
</svg>
