<svg width="20" height="17" viewBox="0 0 20 17" fill="none" xmlns="http://www.w3.org/2000/svg">
<path d="M20 1.9372C19.2563 2.26573 18.4637 2.4835 17.6375 2.58923C18.4875 2.07818 19.1363 1.2751 19.4412 0.307133C18.6488 0.782937 17.7738 1.11902 16.8412 1.30657C16.0887 0.49972 15.0162 0 13.8462 0C11.5763 0 9.74875 1.85538 9.74875 4.12993C9.74875 4.4572 9.77625 4.77189 9.84375 5.07147C6.435 4.90406 3.41875 3.25888 1.3925 0.752727C1.03875 1.37077 0.83125 2.07818 0.83125 2.83972C0.83125 4.26965 1.5625 5.5372 2.6525 6.27105C1.99375 6.25846 1.3475 6.06587 0.8 5.76252C0.8 5.7751 0.8 5.79147 0.8 5.80783C0.8 7.81427 2.22125 9.48084 4.085 9.86475C3.75125 9.95664 3.3875 10.0007 3.01 10.0007C2.7475 10.0007 2.4825 9.98559 2.23375 9.93021C2.765 11.5653 4.2725 12.7674 6.065 12.8064C4.67 13.9053 2.89875 14.5674 0.98125 14.5674C0.645 14.5674 0.3225 14.5523 0 14.5108C1.81625 15.6902 3.96875 16.3636 6.29 16.3636C13.835 16.3636 17.96 10.0699 17.96 4.61455C17.96 4.43203 17.9538 4.2558 17.945 4.08084C18.7588 3.4993 19.4425 2.77301 20 1.9372Z" fill="#03A9F4"/>
</svg>
